<mxfile host="app.diagrams.net" modified="2021-07-18T10:25:18.014Z" agent="5.0 (Windows)" etag="XVn5wPybuh66JuDRaEEF" version="14.8.6" type="gitlab">
  <diagram id="C5RBs43oDa-KdzZeNtuy" name="Page-1">
    <mxGraphModel dx="1422" dy="752" grid="1" gridSize="10" guides="1" tooltips="1" connect="1" arrows="1" fold="1" page="1" pageScale="1" pageWidth="827" pageHeight="1169" math="0" shadow="0">
      <root>
        <mxCell id="WIyWlLk6GJQsqaUBKTNV-0" />
        <mxCell id="WIyWlLk6GJQsqaUBKTNV-1" parent="WIyWlLk6GJQsqaUBKTNV-0" />
        <mxCell id="a8VNHSGGS1smukUCj9o--11" style="edgeStyle=orthogonalEdgeStyle;rounded=0;orthogonalLoop=1;jettySize=auto;html=1;entryX=0.5;entryY=0;entryDx=0;entryDy=0;entryPerimeter=0;" edge="1" parent="WIyWlLk6GJQsqaUBKTNV-1" source="WIyWlLk6GJQsqaUBKTNV-3" target="a8VNHSGGS1smukUCj9o--10">
          <mxGeometry relative="1" as="geometry" />
        </mxCell>
        <mxCell id="WIyWlLk6GJQsqaUBKTNV-3" value="&lt;div&gt;Create BetEvent&lt;br&gt;&lt;/div&gt;&lt;div&gt;&lt;/div&gt;" style="rounded=1;whiteSpace=wrap;html=1;fontSize=12;glass=0;strokeWidth=1;shadow=0;" parent="WIyWlLk6GJQsqaUBKTNV-1" vertex="1">
          <mxGeometry x="330" y="120" width="120" height="40" as="geometry" />
        </mxCell>
        <mxCell id="a8VNHSGGS1smukUCj9o--4" style="edgeStyle=orthogonalEdgeStyle;rounded=0;orthogonalLoop=1;jettySize=auto;html=1;entryX=0;entryY=0.5;entryDx=0;entryDy=0;" edge="1" parent="WIyWlLk6GJQsqaUBKTNV-1" source="J_Oo6n5OK0MJS-ZGxsQh-0" target="J_Oo6n5OK0MJS-ZGxsQh-5">
          <mxGeometry relative="1" as="geometry" />
        </mxCell>
        <mxCell id="a8VNHSGGS1smukUCj9o--5" style="edgeStyle=orthogonalEdgeStyle;rounded=0;orthogonalLoop=1;jettySize=auto;html=1;entryX=0.5;entryY=0;entryDx=0;entryDy=0;" edge="1" parent="WIyWlLk6GJQsqaUBKTNV-1" source="J_Oo6n5OK0MJS-ZGxsQh-0" target="WIyWlLk6GJQsqaUBKTNV-3">
          <mxGeometry relative="1" as="geometry" />
        </mxCell>
        <mxCell id="a8VNHSGGS1smukUCj9o--6" style="edgeStyle=orthogonalEdgeStyle;rounded=0;orthogonalLoop=1;jettySize=auto;html=1;" edge="1" parent="WIyWlLk6GJQsqaUBKTNV-1" source="J_Oo6n5OK0MJS-ZGxsQh-0">
          <mxGeometry relative="1" as="geometry">
            <mxPoint x="10" y="40" as="targetPoint" />
          </mxGeometry>
        </mxCell>
        <mxCell id="J_Oo6n5OK0MJS-ZGxsQh-0" value="&lt;div&gt;&lt;br&gt;&lt;/div&gt;&lt;div&gt;Intialize &lt;span class=&quot;fontstyle0&quot;&gt;liquidity pool&lt;/span&gt; &lt;/div&gt;&lt;br style=&quot;font-style: normal ; font-variant: normal ; font-weight: normal ; letter-spacing: normal ; line-height: normal ; text-indent: 0px ; text-transform: none ; word-spacing: 0px&quot;&gt; " style="rounded=1;whiteSpace=wrap;html=1;" parent="WIyWlLk6GJQsqaUBKTNV-1" vertex="1">
          <mxGeometry x="315" y="20" width="150" height="40" as="geometry" />
        </mxCell>
        <mxCell id="J_Oo6n5OK0MJS-ZGxsQh-12" style="edgeStyle=orthogonalEdgeStyle;rounded=0;orthogonalLoop=1;jettySize=auto;html=1;entryX=0.5;entryY=0;entryDx=0;entryDy=0;" parent="WIyWlLk6GJQsqaUBKTNV-1" source="J_Oo6n5OK0MJS-ZGxsQh-3" target="J_Oo6n5OK0MJS-ZGxsQh-11" edge="1">
          <mxGeometry relative="1" as="geometry" />
        </mxCell>
        <mxCell id="J_Oo6n5OK0MJS-ZGxsQh-3" value="Add&lt;span class=&quot;fontstyle0&quot;&gt;LpAccountId&lt;/span&gt; &lt;br/&gt;" style="rounded=1;whiteSpace=wrap;html=1;" parent="WIyWlLk6GJQsqaUBKTNV-1" vertex="1">
          <mxGeometry x="80" y="120" width="120" height="40" as="geometry" />
        </mxCell>
        <mxCell id="J_Oo6n5OK0MJS-ZGxsQh-10" style="edgeStyle=orthogonalEdgeStyle;rounded=0;orthogonalLoop=1;jettySize=auto;html=1;entryX=0.5;entryY=0;entryDx=0;entryDy=0;" parent="WIyWlLk6GJQsqaUBKTNV-1" source="J_Oo6n5OK0MJS-ZGxsQh-5" target="J_Oo6n5OK0MJS-ZGxsQh-9" edge="1">
          <mxGeometry relative="1" as="geometry" />
        </mxCell>
        <mxCell id="J_Oo6n5OK0MJS-ZGxsQh-38" style="edgeStyle=orthogonalEdgeStyle;rounded=0;orthogonalLoop=1;jettySize=auto;html=1;" parent="WIyWlLk6GJQsqaUBKTNV-1" source="J_Oo6n5OK0MJS-ZGxsQh-5" edge="1">
          <mxGeometry relative="1" as="geometry">
            <mxPoint x="810" y="40" as="targetPoint" />
          </mxGeometry>
        </mxCell>
        <mxCell id="J_Oo6n5OK0MJS-ZGxsQh-5" value="AddBettor" style="rounded=1;whiteSpace=wrap;html=1;" parent="WIyWlLk6GJQsqaUBKTNV-1" vertex="1">
          <mxGeometry x="640" y="20" width="120" height="40" as="geometry" />
        </mxCell>
        <mxCell id="J_Oo6n5OK0MJS-ZGxsQh-15" style="edgeStyle=orthogonalEdgeStyle;rounded=0;orthogonalLoop=1;jettySize=auto;html=1;entryX=0.5;entryY=0;entryDx=0;entryDy=0;" parent="WIyWlLk6GJQsqaUBKTNV-1" source="J_Oo6n5OK0MJS-ZGxsQh-9" target="J_Oo6n5OK0MJS-ZGxsQh-14" edge="1">
          <mxGeometry relative="1" as="geometry" />
        </mxCell>
        <mxCell id="J_Oo6n5OK0MJS-ZGxsQh-9" value="PlaceBet" style="rounded=1;whiteSpace=wrap;html=1;" parent="WIyWlLk6GJQsqaUBKTNV-1" vertex="1">
          <mxGeometry x="640" y="200" width="120" height="40" as="geometry" />
        </mxCell>
        <mxCell id="J_Oo6n5OK0MJS-ZGxsQh-11" value="&lt;span class=&quot;fontstyle0&quot;&gt;provideLiquidity&lt;/span&gt; &lt;br/&gt;" style="rounded=1;whiteSpace=wrap;html=1;" parent="WIyWlLk6GJQsqaUBKTNV-1" vertex="1">
          <mxGeometry x="80" y="220" width="120" height="40" as="geometry" />
        </mxCell>
        <mxCell id="J_Oo6n5OK0MJS-ZGxsQh-16" style="edgeStyle=orthogonalEdgeStyle;rounded=0;orthogonalLoop=1;jettySize=auto;html=1;" parent="WIyWlLk6GJQsqaUBKTNV-1" source="J_Oo6n5OK0MJS-ZGxsQh-14" edge="1">
          <mxGeometry relative="1" as="geometry">
            <mxPoint x="520" y="160" as="targetPoint" />
          </mxGeometry>
        </mxCell>
        <mxCell id="J_Oo6n5OK0MJS-ZGxsQh-20" style="edgeStyle=orthogonalEdgeStyle;rounded=0;orthogonalLoop=1;jettySize=auto;html=1;entryX=0.5;entryY=0;entryDx=0;entryDy=0;" parent="WIyWlLk6GJQsqaUBKTNV-1" source="J_Oo6n5OK0MJS-ZGxsQh-14" target="J_Oo6n5OK0MJS-ZGxsQh-19" edge="1">
          <mxGeometry relative="1" as="geometry" />
        </mxCell>
        <mxCell id="J_Oo6n5OK0MJS-ZGxsQh-14" value="&lt;div&gt;IsValid ?&lt;br&gt;&lt;/div&gt;&lt;div&gt;SumValue &amp;gt;= &lt;span class=&quot;fontstyle0&quot;&gt;liquidity pool&lt;/span&gt;&lt;/div&gt;" style="rhombus;whiteSpace=wrap;html=1;" parent="WIyWlLk6GJQsqaUBKTNV-1" vertex="1">
          <mxGeometry x="605" y="340" width="190" height="150" as="geometry" />
        </mxCell>
        <mxCell id="J_Oo6n5OK0MJS-ZGxsQh-17" value="" style="endArrow=classic;html=1;" parent="WIyWlLk6GJQsqaUBKTNV-1" edge="1">
          <mxGeometry width="50" height="50" relative="1" as="geometry">
            <mxPoint x="520" y="160" as="sourcePoint" />
            <mxPoint x="700" y="160" as="targetPoint" />
          </mxGeometry>
        </mxCell>
        <mxCell id="J_Oo6n5OK0MJS-ZGxsQh-18" value="True" style="text;html=1;align=center;verticalAlign=middle;resizable=0;points=[];autosize=1;strokeColor=none;" parent="WIyWlLk6GJQsqaUBKTNV-1" vertex="1">
          <mxGeometry x="540" y="380" width="40" height="20" as="geometry" />
        </mxCell>
        <mxCell id="J_Oo6n5OK0MJS-ZGxsQh-30" style="edgeStyle=orthogonalEdgeStyle;rounded=0;orthogonalLoop=1;jettySize=auto;html=1;entryX=0.5;entryY=0;entryDx=0;entryDy=0;" parent="WIyWlLk6GJQsqaUBKTNV-1" source="J_Oo6n5OK0MJS-ZGxsQh-19" target="J_Oo6n5OK0MJS-ZGxsQh-27" edge="1">
          <mxGeometry relative="1" as="geometry" />
        </mxCell>
        <mxCell id="J_Oo6n5OK0MJS-ZGxsQh-19" value="AddToSum" style="rounded=0;whiteSpace=wrap;html=1;" parent="WIyWlLk6GJQsqaUBKTNV-1" vertex="1">
          <mxGeometry x="640" y="585" width="120" height="60" as="geometry" />
        </mxCell>
        <mxCell id="J_Oo6n5OK0MJS-ZGxsQh-21" value="False" style="text;html=1;align=center;verticalAlign=middle;resizable=0;points=[];autosize=1;strokeColor=none;" parent="WIyWlLk6GJQsqaUBKTNV-1" vertex="1">
          <mxGeometry x="695" y="500" width="50" height="20" as="geometry" />
        </mxCell>
        <mxCell id="J_Oo6n5OK0MJS-ZGxsQh-23" value="Sum Value 0" style="shape=cylinder3;whiteSpace=wrap;html=1;boundedLbl=1;backgroundOutline=1;size=15;" parent="WIyWlLk6GJQsqaUBKTNV-1" vertex="1">
          <mxGeometry x="129" y="452" width="60" height="80" as="geometry" />
        </mxCell>
        <mxCell id="J_Oo6n5OK0MJS-ZGxsQh-24" value="&lt;div&gt;Sum Value 1&lt;/div&gt;" style="shape=cylinder3;whiteSpace=wrap;html=1;boundedLbl=1;backgroundOutline=1;size=15;" parent="WIyWlLk6GJQsqaUBKTNV-1" vertex="1">
          <mxGeometry x="279" y="452" width="60" height="80" as="geometry" />
        </mxCell>
        <mxCell id="J_Oo6n5OK0MJS-ZGxsQh-25" value="&lt;div&gt;Liquidity&lt;/div&gt;&lt;div&gt;Pool&lt;br&gt;&lt;/div&gt;" style="shape=cylinder3;whiteSpace=wrap;html=1;boundedLbl=1;backgroundOutline=1;size=15;" parent="WIyWlLk6GJQsqaUBKTNV-1" vertex="1">
          <mxGeometry x="90" y="730" width="60" height="80" as="geometry" />
        </mxCell>
        <mxCell id="J_Oo6n5OK0MJS-ZGxsQh-26" value="Bettor Account" style="shape=cylinder3;whiteSpace=wrap;html=1;boundedLbl=1;backgroundOutline=1;size=15;" parent="WIyWlLk6GJQsqaUBKTNV-1" vertex="1">
          <mxGeometry x="240" y="730" width="60" height="80" as="geometry" />
        </mxCell>
        <mxCell id="J_Oo6n5OK0MJS-ZGxsQh-28" style="edgeStyle=orthogonalEdgeStyle;rounded=0;orthogonalLoop=1;jettySize=auto;html=1;" parent="WIyWlLk6GJQsqaUBKTNV-1" edge="1">
          <mxGeometry relative="1" as="geometry">
            <mxPoint x="309" y="452" as="targetPoint" />
            <mxPoint x="279" y="381" as="sourcePoint" />
          </mxGeometry>
        </mxCell>
        <mxCell id="J_Oo6n5OK0MJS-ZGxsQh-29" style="edgeStyle=orthogonalEdgeStyle;rounded=0;orthogonalLoop=1;jettySize=auto;html=1;" parent="WIyWlLk6GJQsqaUBKTNV-1" source="J_Oo6n5OK0MJS-ZGxsQh-27" target="J_Oo6n5OK0MJS-ZGxsQh-23" edge="1">
          <mxGeometry relative="1" as="geometry" />
        </mxCell>
        <mxCell id="J_Oo6n5OK0MJS-ZGxsQh-27" value="What Value" style="rhombus;whiteSpace=wrap;html=1;" parent="WIyWlLk6GJQsqaUBKTNV-1" vertex="1">
          <mxGeometry x="199" y="342" width="80" height="80" as="geometry" />
        </mxCell>
        <mxCell id="J_Oo6n5OK0MJS-ZGxsQh-31" value="HandleResult" style="rounded=1;whiteSpace=wrap;html=1;" parent="WIyWlLk6GJQsqaUBKTNV-1" vertex="1">
          <mxGeometry x="170" y="570" width="120" height="50" as="geometry" />
        </mxCell>
        <mxCell id="J_Oo6n5OK0MJS-ZGxsQh-34" value="" style="endArrow=classic;html=1;" parent="WIyWlLk6GJQsqaUBKTNV-1" edge="1">
          <mxGeometry width="50" height="50" relative="1" as="geometry">
            <mxPoint x="810" y="910" as="sourcePoint" />
            <mxPoint x="180" y="910" as="targetPoint" />
          </mxGeometry>
        </mxCell>
        <mxCell id="J_Oo6n5OK0MJS-ZGxsQh-35" value="" style="endArrow=classic;html=1;" parent="WIyWlLk6GJQsqaUBKTNV-1" edge="1">
          <mxGeometry width="50" height="50" relative="1" as="geometry">
            <mxPoint x="810" y="40" as="sourcePoint" />
            <mxPoint x="810" y="910" as="targetPoint" />
          </mxGeometry>
        </mxCell>
        <mxCell id="J_Oo6n5OK0MJS-ZGxsQh-48" value="" style="endArrow=classic;startArrow=classic;html=1;entryX=0.808;entryY=1;entryDx=0;entryDy=0;entryPerimeter=0;" parent="WIyWlLk6GJQsqaUBKTNV-1" target="J_Oo6n5OK0MJS-ZGxsQh-31" edge="1">
          <mxGeometry width="50" height="50" relative="1" as="geometry">
            <mxPoint x="270" y="730" as="sourcePoint" />
            <mxPoint x="320" y="680" as="targetPoint" />
          </mxGeometry>
        </mxCell>
        <mxCell id="J_Oo6n5OK0MJS-ZGxsQh-49" value="" style="endArrow=classic;startArrow=classic;html=1;" parent="WIyWlLk6GJQsqaUBKTNV-1" edge="1">
          <mxGeometry width="50" height="50" relative="1" as="geometry">
            <mxPoint x="230" y="570" as="sourcePoint" />
            <mxPoint x="279" y="520" as="targetPoint" />
          </mxGeometry>
        </mxCell>
        <mxCell id="J_Oo6n5OK0MJS-ZGxsQh-51" value="" style="endArrow=classic;startArrow=classic;html=1;entryX=0.5;entryY=0;entryDx=0;entryDy=0;" parent="WIyWlLk6GJQsqaUBKTNV-1" target="J_Oo6n5OK0MJS-ZGxsQh-31" edge="1">
          <mxGeometry width="50" height="50" relative="1" as="geometry">
            <mxPoint x="189" y="520" as="sourcePoint" />
            <mxPoint x="220" y="560" as="targetPoint" />
          </mxGeometry>
        </mxCell>
        <mxCell id="J_Oo6n5OK0MJS-ZGxsQh-52" value="Joining Bones 1000.00 INR" style="text;html=1;strokeColor=none;fillColor=none;align=center;verticalAlign=middle;whiteSpace=wrap;rounded=0;" parent="WIyWlLk6GJQsqaUBKTNV-1" vertex="1">
          <mxGeometry x="414" y="920" width="216" height="20" as="geometry" />
        </mxCell>
        <mxCell id="J_Oo6n5OK0MJS-ZGxsQh-54" value="" style="endArrow=classic;html=1;exitX=0.833;exitY=0;exitDx=0;exitDy=0;exitPerimeter=0;" parent="WIyWlLk6GJQsqaUBKTNV-1" source="J_Oo6n5OK0MJS-ZGxsQh-55" edge="1">
          <mxGeometry width="50" height="50" relative="1" as="geometry">
            <mxPoint x="190" y="830" as="sourcePoint" />
            <mxPoint x="240" y="780" as="targetPoint" />
          </mxGeometry>
        </mxCell>
        <mxCell id="J_Oo6n5OK0MJS-ZGxsQh-55" value="Joining Bones" style="rounded=1;whiteSpace=wrap;html=1;" parent="WIyWlLk6GJQsqaUBKTNV-1" vertex="1">
          <mxGeometry x="60" y="880" width="120" height="60" as="geometry" />
        </mxCell>
        <mxCell id="J_Oo6n5OK0MJS-ZGxsQh-57" value="" style="endArrow=classic;startArrow=classic;html=1;entryX=0.5;entryY=1;entryDx=0;entryDy=0;entryPerimeter=0;" parent="WIyWlLk6GJQsqaUBKTNV-1" target="J_Oo6n5OK0MJS-ZGxsQh-25" edge="1">
          <mxGeometry width="50" height="50" relative="1" as="geometry">
            <mxPoint x="120" y="880" as="sourcePoint" />
            <mxPoint x="170" y="830" as="targetPoint" />
          </mxGeometry>
        </mxCell>
        <mxCell id="J_Oo6n5OK0MJS-ZGxsQh-58" value="" style="endArrow=classic;html=1;exitX=0;exitY=0.5;exitDx=0;exitDy=0;" parent="WIyWlLk6GJQsqaUBKTNV-1" source="J_Oo6n5OK0MJS-ZGxsQh-11" edge="1">
          <mxGeometry width="50" height="50" relative="1" as="geometry">
            <mxPoint x="30" y="320" as="sourcePoint" />
            <mxPoint x="40" y="240" as="targetPoint" />
          </mxGeometry>
        </mxCell>
        <mxCell id="J_Oo6n5OK0MJS-ZGxsQh-59" value="" style="endArrow=classic;html=1;" parent="WIyWlLk6GJQsqaUBKTNV-1" edge="1">
          <mxGeometry width="50" height="50" relative="1" as="geometry">
            <mxPoint x="40" y="240" as="sourcePoint" />
            <mxPoint x="40" y="780" as="targetPoint" />
          </mxGeometry>
        </mxCell>
        <mxCell id="J_Oo6n5OK0MJS-ZGxsQh-60" value="" style="endArrow=classic;html=1;" parent="WIyWlLk6GJQsqaUBKTNV-1" edge="1">
          <mxGeometry width="50" height="50" relative="1" as="geometry">
            <mxPoint x="40" y="780" as="sourcePoint" />
            <mxPoint x="90" y="780" as="targetPoint" />
          </mxGeometry>
        </mxCell>
        <mxCell id="J_Oo6n5OK0MJS-ZGxsQh-61" value="&lt;span class=&quot;fontstyle0&quot;&gt;provide fund to the pool&lt;/span&gt; &lt;br/&gt;" style="text;html=1;strokeColor=none;fillColor=none;align=center;verticalAlign=middle;whiteSpace=wrap;rounded=0;rotation=90;" parent="WIyWlLk6GJQsqaUBKTNV-1" vertex="1">
          <mxGeometry x="-50" y="505" width="200" height="10" as="geometry" />
        </mxCell>
        <mxCell id="J_Oo6n5OK0MJS-ZGxsQh-63" value="&lt;span class=&quot;fontstyle0&quot;&gt;Initialize the pool balance with 100,000,00.00 INR&lt;/span&gt; &lt;br/&gt;" style="text;html=1;strokeColor=none;fillColor=none;align=center;verticalAlign=middle;whiteSpace=wrap;rounded=0;" parent="WIyWlLk6GJQsqaUBKTNV-1" vertex="1">
          <mxGeometry x="5" y="20" width="310" height="20" as="geometry" />
        </mxCell>
        <mxCell id="djAfR4F-hiV8GCk_mcX_-13" value="" style="endArrow=classic;startArrow=classic;html=1;entryX=0.317;entryY=1.06;entryDx=0;entryDy=0;entryPerimeter=0;" parent="WIyWlLk6GJQsqaUBKTNV-1" target="J_Oo6n5OK0MJS-ZGxsQh-31" edge="1">
          <mxGeometry width="50" height="50" relative="1" as="geometry">
            <mxPoint x="149" y="740" as="sourcePoint" />
            <mxPoint x="180" y="680" as="targetPoint" />
          </mxGeometry>
        </mxCell>
        <mxCell id="djAfR4F-hiV8GCk_mcX_-15" value="oddValue * (sumValue + valuebetAmount)" style="text;html=1;strokeColor=none;fillColor=none;align=center;verticalAlign=middle;whiteSpace=wrap;rounded=0;" parent="WIyWlLk6GJQsqaUBKTNV-1" vertex="1">
          <mxGeometry x="550" y="280" width="130" height="60" as="geometry" />
        </mxCell>
        <mxCell id="a8VNHSGGS1smukUCj9o--8" value="" style="endArrow=classic;html=1;" edge="1" parent="WIyWlLk6GJQsqaUBKTNV-1">
          <mxGeometry width="50" height="50" relative="1" as="geometry">
            <mxPoint x="10" y="40" as="sourcePoint" />
            <mxPoint x="10" y="800" as="targetPoint" />
          </mxGeometry>
        </mxCell>
        <mxCell id="a8VNHSGGS1smukUCj9o--9" value="" style="endArrow=classic;html=1;" edge="1" parent="WIyWlLk6GJQsqaUBKTNV-1">
          <mxGeometry width="50" height="50" relative="1" as="geometry">
            <mxPoint x="10" y="800" as="sourcePoint" />
            <mxPoint x="89" y="800" as="targetPoint" />
          </mxGeometry>
        </mxCell>
        <mxCell id="a8VNHSGGS1smukUCj9o--12" style="edgeStyle=orthogonalEdgeStyle;rounded=0;orthogonalLoop=1;jettySize=auto;html=1;" edge="1" parent="WIyWlLk6GJQsqaUBKTNV-1" source="a8VNHSGGS1smukUCj9o--10">
          <mxGeometry relative="1" as="geometry">
            <mxPoint x="320" y="300" as="targetPoint" />
          </mxGeometry>
        </mxCell>
        <mxCell id="a8VNHSGGS1smukUCj9o--10" value="BetEvents" style="shape=cylinder3;whiteSpace=wrap;html=1;boundedLbl=1;backgroundOutline=1;size=15;" vertex="1" parent="WIyWlLk6GJQsqaUBKTNV-1">
          <mxGeometry x="360" y="190" width="60" height="80" as="geometry" />
        </mxCell>
        <mxCell id="a8VNHSGGS1smukUCj9o--13" value="Bets" style="shape=cylinder3;whiteSpace=wrap;html=1;boundedLbl=1;backgroundOutline=1;size=15;" vertex="1" parent="WIyWlLk6GJQsqaUBKTNV-1">
          <mxGeometry x="80" y="270" width="60" height="80" as="geometry" />
        </mxCell>
        <mxCell id="a8VNHSGGS1smukUCj9o--14" value="" style="endArrow=classic;html=1;entryX=1;entryY=0;entryDx=0;entryDy=27.5;entryPerimeter=0;" edge="1" parent="WIyWlLk6GJQsqaUBKTNV-1" target="a8VNHSGGS1smukUCj9o--13">
          <mxGeometry width="50" height="50" relative="1" as="geometry">
            <mxPoint x="321" y="300" as="sourcePoint" />
            <mxPoint x="265" y="300" as="targetPoint" />
          </mxGeometry>
        </mxCell>
        <mxCell id="a8VNHSGGS1smukUCj9o--15" value="" style="endArrow=classic;html=1;entryX=0.733;entryY=0.975;entryDx=0;entryDy=0;entryPerimeter=0;" edge="1" parent="WIyWlLk6GJQsqaUBKTNV-1" target="a8VNHSGGS1smukUCj9o--13">
          <mxGeometry width="50" height="50" relative="1" as="geometry">
            <mxPoint x="159" y="380" as="sourcePoint" />
            <mxPoint x="129" y="350" as="targetPoint" />
          </mxGeometry>
        </mxCell>
        <mxCell id="a8VNHSGGS1smukUCj9o--16" value="" style="endArrow=classic;html=1;" edge="1" parent="WIyWlLk6GJQsqaUBKTNV-1">
          <mxGeometry width="50" height="50" relative="1" as="geometry">
            <mxPoint x="308.5" y="380" as="sourcePoint" />
            <mxPoint x="308.5" y="310" as="targetPoint" />
          </mxGeometry>
        </mxCell>
        <mxCell id="a8VNHSGGS1smukUCj9o--17" value="" style="endArrow=classic;html=1;entryX=1;entryY=0.5;entryDx=0;entryDy=0;entryPerimeter=0;" edge="1" parent="WIyWlLk6GJQsqaUBKTNV-1" target="a8VNHSGGS1smukUCj9o--13">
          <mxGeometry width="50" height="50" relative="1" as="geometry">
            <mxPoint x="310" y="309.5" as="sourcePoint" />
            <mxPoint x="260" y="309.5" as="targetPoint" />
          </mxGeometry>
        </mxCell>
        <mxCell id="a8VNHSGGS1smukUCj9o--18" value="Bettors" style="shape=cylinder3;whiteSpace=wrap;html=1;boundedLbl=1;backgroundOutline=1;size=15;" vertex="1" parent="WIyWlLk6GJQsqaUBKTNV-1">
          <mxGeometry x="560" y="60" width="60" height="80" as="geometry" />
        </mxCell>
        <mxCell id="a8VNHSGGS1smukUCj9o--19" value="" style="endArrow=classic;html=1;entryX=1;entryY=0.5;entryDx=0;entryDy=0;entryPerimeter=0;" edge="1" parent="WIyWlLk6GJQsqaUBKTNV-1" target="a8VNHSGGS1smukUCj9o--18">
          <mxGeometry width="50" height="50" relative="1" as="geometry">
            <mxPoint x="700" y="99.5" as="sourcePoint" />
            <mxPoint x="640" y="99.5" as="targetPoint" />
          </mxGeometry>
        </mxCell>
        <mxCell id="a8VNHSGGS1smukUCj9o--20" value="" style="endArrow=classic;html=1;" edge="1" parent="WIyWlLk6GJQsqaUBKTNV-1">
          <mxGeometry width="50" height="50" relative="1" as="geometry">
            <mxPoint x="560" y="105" as="sourcePoint" />
            <mxPoint x="480" y="105" as="targetPoint" />
          </mxGeometry>
        </mxCell>
        <mxCell id="a8VNHSGGS1smukUCj9o--21" value="" style="endArrow=classic;html=1;" edge="1" parent="WIyWlLk6GJQsqaUBKTNV-1">
          <mxGeometry width="50" height="50" relative="1" as="geometry">
            <mxPoint x="480" y="105" as="sourcePoint" />
            <mxPoint x="480" y="280" as="targetPoint" />
          </mxGeometry>
        </mxCell>
        <mxCell id="a8VNHSGGS1smukUCj9o--22" value="" style="endArrow=classic;html=1;" edge="1" parent="WIyWlLk6GJQsqaUBKTNV-1">
          <mxGeometry width="50" height="50" relative="1" as="geometry">
            <mxPoint x="481" y="280" as="sourcePoint" />
            <mxPoint x="140" y="280" as="targetPoint" />
          </mxGeometry>
        </mxCell>
        <mxCell id="a8VNHSGGS1smukUCj9o--24" value="" style="endArrow=classic;html=1;" edge="1" parent="WIyWlLk6GJQsqaUBKTNV-1">
          <mxGeometry width="50" height="50" relative="1" as="geometry">
            <mxPoint x="170" y="594.5" as="sourcePoint" />
            <mxPoint x="100" y="595" as="targetPoint" />
          </mxGeometry>
        </mxCell>
        <mxCell id="a8VNHSGGS1smukUCj9o--25" value="" style="endArrow=classic;html=1;" edge="1" parent="WIyWlLk6GJQsqaUBKTNV-1">
          <mxGeometry width="50" height="50" relative="1" as="geometry">
            <mxPoint x="100" y="590" as="sourcePoint" />
            <mxPoint x="100" y="350" as="targetPoint" />
          </mxGeometry>
        </mxCell>
      </root>
    </mxGraphModel>
  </diagram>
</mxfile>
